{
	"database": {
		"user": "postgres",
		"host": "192.168.1.151",
		"database": "budgeting_upgrade",
		"port": 5432,
		"schema": "budget"
	},
	"write_raw_transaction_put_location": "/stream_backup/budget_raw_data_dump"
}